<?xml version="1.0" encoding="UTF-8" standalone="no"?>
<!-- Created with Inkscape (http://www.inkscape.org/) -->

<svg
   xmlns:dc="http://purl.org/dc/elements/1.1/"
   xmlns:cc="http://creativecommons.org/ns#"
   xmlns:rdf="http://www.w3.org/1999/02/22-rdf-syntax-ns#"
   xmlns:svg="http://www.w3.org/2000/svg"
   xmlns="http://www.w3.org/2000/svg"
   xmlns:sodipodi="http://sodipodi.sourceforge.net/DTD/sodipodi-0.dtd"
   xmlns:inkscape="http://www.inkscape.org/namespaces/inkscape"
   width="62mm"
   height="62mm"
   viewBox="0 0 62 62"
   version="1.1"
   id="svg8"
   inkscape:version="0.92.4 (5da689c313, 2019-01-14)"
   sodipodi:docname="draft003_bw_q60.svg"
   inkscape:export-filename="/home/bg/bilder/Ein-Herz-fuer-Maschinen/ein-herz-fuer-maschinen.png"
   inkscape:export-xdpi="60.533649"
   inkscape:export-ydpi="60.533649">
  <defs
     id="defs2" />
  <sodipodi:namedview
     id="base"
     pagecolor="#ffffff"
     bordercolor="#666666"
     borderopacity="1.0"
     inkscape:pageopacity="0.0"
     inkscape:pageshadow="2"
     inkscape:zoom="0.49497475"
     inkscape:cx="544.57208"
     inkscape:cy="1079.7983"
     inkscape:document-units="mm"
     inkscape:current-layer="layer1"
     showgrid="true"
     fit-margin-top="0"
     fit-margin-left="0"
     fit-margin-right="0"
     fit-margin-bottom="0"
     inkscape:window-width="2560"
     inkscape:window-height="1413"
     inkscape:window-x="1920"
     inkscape:window-y="27"
     inkscape:window-maximized="1"
     inkscape:pagecheckerboard="true">
    <inkscape:grid
       type="xygrid"
       id="grid1307"
       originx="-62.052977"
       originy="-111.89872" />
  </sodipodi:namedview>
  <metadata
     id="metadata5">
    <rdf:RDF>
      <cc:Work
         rdf:about="">
        <dc:format>image/svg+xml</dc:format>
        <dc:type
           rdf:resource="http://purl.org/dc/dcmitype/StillImage" />
        <dc:title></dc:title>
      </cc:Work>
    </rdf:RDF>
  </metadata>
  <g
     inkscape:label="Ebene 1"
     inkscape:groupmode="layer"
     id="layer1"
     transform="translate(-62.052981,-123.10127)">
    <g
       transform="matrix(0.18276029,0,0,0.18276029,68.685282,-104.75863)"
       id="layer1-3"
       style="fill:none;fill-opacity:1;stroke:#000000;stroke-opacity:1" />
    <g
       id="g1131"
       transform="matrix(0.54412434,0,0,0.54412434,18.688302,173.82102)">
      <path
         inkscape:connector-curvature="0"
         id="path7"
         d="m 263.41992,225.80078 c -71.29894,0 -129.34961,58.05067 -129.34961,129.34961 0,70.51896 36.37905,116.19826 82.5293,159.07422 46.15025,42.87596 102.39074,84.39446 147.70312,149.5625 l 7.8711,11.32031 7.60547,-11.5 c 42.75299,-64.63968 98.96731,-107.23492 145.6875,-150.69336 46.72018,-43.45843 84.42382,-89.17018 84.42382,-157.76367 0,-71.29894 -58.05262,-129.34961 -129.35156,-129.34961 -45.52063,0 -85.5325,23.68389 -108.55859,59.33789 -23.02787,-35.655 -63.04771,-59.33789 -108.56055,-59.33789 z m 0,18.69922 c 44.35891,0 82.42713,26.16941 100.0957,63.80273 l 8.46485,18.02735 8.46289,-18.02735 C 398.11246,270.66828 436.16939,244.5 480.53906,244.5 c 61.18107,0 110.65039,49.46933 110.65039,110.65039 0,61.85652 -32.79167,101.5932 -78.45898,144.07227 -43.12473,40.11399 -97.28995,81.45866 -140.92969,142.99609 C 326.02687,580.4254 271.84492,540.02373 229.32812,500.52344 184.35587,458.7419 152.76953,419.38143 152.76953,355.15039 152.76953,293.96933 202.23886,244.5 263.41992,244.5 Z"
         style="color:#000000;font-style:normal;font-variant:normal;font-weight:normal;font-stretch:normal;font-size:medium;line-height:normal;font-family:sans-serif;font-variant-ligatures:normal;font-variant-position:normal;font-variant-caps:normal;font-variant-numeric:normal;font-variant-alternates:normal;font-feature-settings:normal;text-indent:0;text-align:start;text-decoration:none;text-decoration-line:none;text-decoration-style:solid;text-decoration-color:#000000;letter-spacing:normal;word-spacing:normal;text-transform:none;writing-mode:lr-tb;direction:ltr;text-orientation:mixed;dominant-baseline:auto;baseline-shift:baseline;text-anchor:start;white-space:normal;shape-padding:0;clip-rule:nonzero;display:inline;overflow:visible;visibility:visible;opacity:1;isolation:auto;mix-blend-mode:normal;color-interpolation:sRGB;color-interpolation-filters:linearRGB;solid-color:#000000;solid-opacity:1;vector-effect:none;fill:#000000;fill-opacity:1;fill-rule:nonzero;stroke:#fcffff;stroke-width:1.65243769;stroke-linecap:butt;stroke-linejoin:miter;stroke-miterlimit:4;stroke-dasharray:none;stroke-dashoffset:0;stroke-opacity:1;color-rendering:auto;image-rendering:auto;shape-rendering:auto;text-rendering:auto;enable-background:accumulate"
         transform="matrix(0.18276029,0,0,0.18276029,68.685282,-104.75863)" />
      <g
         transform="matrix(0.69074755,0,0,0.69074755,50.325009,-109.23423)"
         id="text1289"
         style="font-style:normal;font-variant:normal;font-weight:normal;font-stretch:normal;font-size:15.1468668px;line-height:1.25;font-family:'Rounds Black';-inkscape-font-specification:'Rounds Black, Normal';font-variant-ligatures:normal;font-variant-caps:normal;font-variant-numeric:normal;font-feature-settings:normal;text-align:center;letter-spacing:0px;word-spacing:0px;writing-mode:lr-tb;text-anchor:middle;display:inline;fill:#000000;fill-opacity:1;stroke:#fff8ff;stroke-width:0.43700001;stroke-linecap:butt;stroke-linejoin:miter;stroke-miterlimit:4;stroke-dasharray:none;stroke-opacity:1"
         aria-label="Herz fur
">
        <path
           inkscape:connector-curvature="0"
           id="path929"
           style="font-style:normal;font-variant:normal;font-weight:normal;font-stretch:normal;font-size:19.75555611px;font-family:'Rounds Black';-inkscape-font-specification:'Rounds Black, Normal';font-variant-ligatures:normal;font-variant-caps:normal;font-variant-numeric:normal;font-feature-settings:normal;text-align:center;writing-mode:lr-tb;text-anchor:middle;stroke:#fff8ff;stroke-width:0.43700001;stroke-miterlimit:4;stroke-dasharray:none;stroke-opacity:1"
           d="m 78.186278,48.400603 c 0,-1.185333 -0.790222,-1.975556 -2.173111,-1.975556 -1.382889,0 -2.173111,0.790223 -2.173111,1.975556 v 10.272889 c 0,1.185334 0.790222,1.975556 2.173111,1.975556 1.382889,0 2.173111,-0.790222 2.173111,-1.975556 v -3.160889 h 3.951111 v 3.160889 c 0,1.185334 0.790223,1.975556 2.173112,1.975556 1.382889,0 2.173111,-0.790222 2.173111,-1.975556 V 48.400603 c 0,-1.185333 -0.790222,-1.975556 -2.173111,-1.975556 -1.382889,0 -2.173112,0.790223 -2.173112,1.975556 v 3.358445 h -3.951111 z" />
        <path
           inkscape:connector-curvature="0"
           id="path931"
           style="font-style:normal;font-variant:normal;font-weight:normal;font-stretch:normal;font-size:19.75555611px;font-family:'Rounds Black';-inkscape-font-specification:'Rounds Black, Normal';font-variant-ligatures:normal;font-variant-caps:normal;font-variant-numeric:normal;font-feature-settings:normal;text-align:center;writing-mode:lr-tb;text-anchor:middle;stroke:#fff8ff;stroke-width:0.43700001;stroke-miterlimit:4;stroke-dasharray:none;stroke-opacity:1"
           d="m 98.722796,50.573714 c 1.382884,0 2.173114,-0.790222 2.173114,-1.975555 0,-1.185334 -0.79023,-1.975556 -2.173114,-1.975556 h -7.507111 c -1.382889,0 -2.173112,0.790222 -2.173112,1.975556 v 9.877778 c 0,1.185333 0.790223,1.975555 2.173112,1.975555 h 7.704666 c 1.382889,0 2.173109,-0.790222 2.173109,-1.975555 0,-1.185334 -0.79022,-1.975556 -2.173109,-1.975556 h -5.531555 v -1.185333 h 3.753555 c 1.185334,0 1.975556,-0.790223 1.975556,-1.778 0,-0.987778 -0.790222,-1.778 -1.975556,-1.778 h -3.753555 v -1.185334 z" />
        <path
           inkscape:connector-curvature="0"
           id="path933"
           style="font-style:normal;font-variant:normal;font-weight:normal;font-stretch:normal;font-size:19.75555611px;font-family:'Rounds Black';-inkscape-font-specification:'Rounds Black, Normal';font-variant-ligatures:normal;font-variant-caps:normal;font-variant-numeric:normal;font-feature-settings:normal;text-align:center;writing-mode:lr-tb;text-anchor:middle;stroke:#fff8ff;stroke-width:0.43700001;stroke-miterlimit:4;stroke-dasharray:none;stroke-opacity:1"
           d="m 108.11749,55.512603 3.16089,4.148667 c 0,0 0.79022,0.987778 1.778,0.987778 1.58044,0 2.37066,-0.790222 2.37066,-1.975556 0,-0.790222 -0.79022,-1.778 -0.79022,-1.778 l -1.97555,-2.370667 V 54.32727 c 0,0 2.17311,-0.790222 2.17311,-3.259667 0,-2.667 -1.778,-4.445 -5.92667,-4.445 h -4.14867 c -1.38289,0 -2.17311,0.790222 -2.17311,1.975556 v 10.075333 c 0,1.185334 0.79022,1.975556 2.17311,1.975556 1.38289,0 2.17311,-0.790222 2.17311,-1.975556 v -3.160889 z m -1.18534,-3.358444 v -2.173111 h 1.97556 c 0.889,0 1.38289,0.493888 1.38289,1.086555 0,0.592667 -0.49389,1.086556 -1.38289,1.086556 z" />
        <path
           inkscape:connector-curvature="0"
           id="path935"
           style="font-style:normal;font-variant:normal;font-weight:normal;font-stretch:normal;font-size:19.75555611px;font-family:'Rounds Black';-inkscape-font-specification:'Rounds Black, Normal';font-variant-ligatures:normal;font-variant-caps:normal;font-variant-numeric:normal;font-feature-settings:normal;text-align:center;writing-mode:lr-tb;text-anchor:middle;stroke:#fff8ff;stroke-width:0.43700001;stroke-miterlimit:4;stroke-dasharray:none;stroke-opacity:1"
           d="m 116.52286,56.500381 c 0,0 -0.79022,0.790222 -0.79022,1.975556 0,1.185333 0.79022,1.975555 2.17311,1.975555 h 8.09978 c 1.38289,0 2.17311,-0.790222 2.17311,-1.975555 0,-1.185334 -0.79022,-1.975556 -2.17311,-1.975556 h -3.75356 v -0.197555 l 4.93889,-5.729112 c 0,0 0.79022,-0.790222 0.79022,-1.975555 0,-1.185334 -0.79022,-1.975556 -2.17311,-1.975556 h -7.70467 c -1.38288,0 -2.17311,0.790222 -2.17311,1.975556 0,1.185333 0.79023,1.975555 2.17311,1.975555 h 3.75356 v 0.197556 z" />
        <path
           inkscape:connector-curvature="0"
           id="path937"
           style="font-style:normal;font-variant:normal;font-weight:normal;font-stretch:normal;font-size:19.75555611px;font-family:'Rounds Black';-inkscape-font-specification:'Rounds Black, Normal';font-variant-ligatures:normal;font-variant-caps:normal;font-variant-numeric:normal;font-feature-settings:normal;text-align:center;writing-mode:lr-tb;text-anchor:middle;stroke:#fff8ff;stroke-width:0.43700001;stroke-miterlimit:4;stroke-dasharray:none;stroke-opacity:1"
           d="m 144.67762,50.573714 c 1.38288,0 2.17311,-0.790222 2.17311,-1.975555 0,-1.185334 -0.79023,-1.975556 -2.17311,-1.975556 h -7.50712 c -1.38288,0 -2.17311,0.790222 -2.17311,1.975556 v 10.075333 c 0,1.185334 0.79023,1.975556 2.17311,1.975556 1.38289,0 2.17312,-0.790222 2.17312,-1.975556 V 56.10527 h 2.96333 c 1.38289,0 2.17311,-0.790222 2.17311,-1.975556 0,-1.185333 -0.79022,-1.975555 -2.17311,-1.975555 h -2.96333 v -1.580445 z" />
        <path
           inkscape:connector-curvature="0"
           id="path939"
           style="font-style:normal;font-variant:normal;font-weight:normal;font-stretch:normal;font-size:19.75555611px;font-family:'Rounds Black';-inkscape-font-specification:'Rounds Black, Normal';font-variant-ligatures:normal;font-variant-caps:normal;font-variant-numeric:normal;font-feature-settings:normal;text-align:center;writing-mode:lr-tb;text-anchor:middle;stroke:#fff8ff;stroke-width:0.43700001;stroke-miterlimit:4;stroke-dasharray:none;stroke-opacity:1"
           d="m 154.43809,60.846603 c 3.95112,0 6.32178,-2.370666 6.32178,-5.729111 v -6.716889 c 0,-1.185333 -0.79022,-1.975556 -2.17311,-1.975556 -1.38289,0 -2.17311,0.790223 -2.17311,1.975556 v 6.716889 c 0,1.382889 -0.79022,2.173111 -1.97556,2.173111 -1.18533,0 -1.97555,-0.790222 -1.97555,-2.173111 v -6.716889 c 0,-1.185333 -0.79022,-1.975556 -2.17311,-1.975556 -1.38289,0 -2.17311,0.790223 -2.17311,1.975556 v 6.716889 c 0,3.358445 2.37066,5.729111 6.32177,5.729111 z" />
        <path
           inkscape:connector-curvature="0"
           id="path941"
           style="font-style:normal;font-variant:normal;font-weight:normal;font-stretch:normal;font-size:19.75555611px;font-family:'Rounds Black';-inkscape-font-specification:'Rounds Black, Normal';font-variant-ligatures:normal;font-variant-caps:normal;font-variant-numeric:normal;font-feature-settings:normal;text-align:center;writing-mode:lr-tb;text-anchor:middle;stroke:#fff8ff;stroke-width:0.43700001;stroke-miterlimit:4;stroke-dasharray:none;stroke-opacity:1"
           d="m 168.85039,55.512603 3.16089,4.148667 c 0,0 0.79022,0.987778 1.778,0.987778 1.58044,0 2.37066,-0.790222 2.37066,-1.975556 0,-0.790222 -0.79022,-1.778 -0.79022,-1.778 l -1.97556,-2.370667 V 54.32727 c 0,0 2.17312,-0.790222 2.17312,-3.259667 0,-2.667 -1.778,-4.445 -5.92667,-4.445 h -4.14867 c -1.38289,0 -2.17311,0.790222 -2.17311,1.975556 v 10.075333 c 0,1.185334 0.79022,1.975556 2.17311,1.975556 1.38289,0 2.17311,-0.790222 2.17311,-1.975556 v -3.160889 z m -1.18534,-3.358444 v -2.173111 h 1.97556 c 0.889,0 1.38289,0.493888 1.38289,1.086555 0,0.592667 -0.49389,1.086556 -1.38289,1.086556 z" />
      </g>
      <g
         transform="matrix(0.69074755,0,0,0.69074755,50.325009,-109.23423)"
         id="text1301"
         style="font-style:normal;font-weight:normal;font-size:9.17222214px;line-height:1.25;font-family:Sans;letter-spacing:0px;word-spacing:0px;display:inline;fill:#000000;fill-opacity:1;stroke:#fff8ff;stroke-width:0.43720749;stroke-linecap:butt;stroke-linejoin:miter;stroke-miterlimit:4;stroke-dasharray:none;stroke-opacity:1"
         aria-label="Maschinen">
        <path
           inkscape:connector-curvature="0"
           id="path970"
           style="font-style:italic;font-variant:normal;font-weight:bold;font-stretch:normal;font-size:19.75555611px;font-family:'Courier New';-inkscape-font-specification:'Courier New, Bold Italic';font-variant-ligatures:normal;font-variant-caps:normal;font-variant-numeric:normal;font-feature-settings:normal;text-align:start;writing-mode:lr-tb;text-anchor:start;stroke:#fff8ff;stroke-width:0.43720749;stroke-miterlimit:4;stroke-dasharray:none;stroke-opacity:1"
           d="m 76.431046,104.47092 -1.254015,5.89387 h 0.713824 q 0.665592,0 0.897103,0.20257 0.23151,0.20257 0.23151,0.57877 0,0.59807 -0.569129,0.99357 -0.299035,0.20257 -0.974273,0.20257 h -2.604493 q -0.655946,0 -0.897103,-0.20257 -0.23151,-0.21222 -0.23151,-0.57878 0,-0.48231 0.385851,-0.83922 0.395497,-0.36656 1.070735,-0.35691 l 1.639866,-7.73631 q -0.443728,-0.0386 -0.655946,-0.24116 -0.202572,-0.21222 -0.202572,-0.54984 0,-0.58842 0.559484,-0.98391 0.30868,-0.21222 0.993565,-0.21222 l 2.17041,0.01 1.427648,5.95175 3.906738,-5.95175 h 2.189703 q 0.655946,0 0.887457,0.20258 0.241156,0.20257 0.241156,0.57877 0,0.44373 -0.347265,0.791 -0.33762,0.34726 -0.935688,0.40514 l -1.639866,7.73631 q 0.56913,0 0.800641,0.21221 0.23151,0.20257 0.23151,0.56913 0,0.59807 -0.56913,0.99357 -0.299034,0.20257 -0.983919,0.20257 h -2.594846 q -0.655946,0 -0.897103,-0.20257 -0.23151,-0.21222 -0.23151,-0.57878 0,-0.58842 0.559483,-0.98392 0.299034,-0.21221 0.993566,-0.21221 h 0.713823 l 1.254015,-5.89387 -3.347255,5.09322 h -1.717035 z" />
        <path
           inkscape:connector-curvature="0"
           id="path972"
           style="font-style:italic;font-variant:normal;font-weight:bold;font-stretch:normal;font-size:19.75555611px;font-family:'Courier New';-inkscape-font-specification:'Courier New, Bold Italic';font-variant-ligatures:normal;font-variant-caps:normal;font-variant-numeric:normal;font-feature-settings:normal;text-align:start;writing-mode:lr-tb;text-anchor:start;stroke:#fff8ff;stroke-width:0.43720749;stroke-miterlimit:4;stroke-dasharray:none;stroke-opacity:1"
           d="m 91.469577,112.34227 0.09646,-0.46302 q -1.649512,0.78135 -3.491949,0.78135 -1.36977,0 -2.180057,-0.69453 -0.810286,-0.69454 -0.810286,-1.58199 0,-0.72347 0.559483,-1.52411 0.752409,-1.08038 2.064302,-1.67845 1.321538,-0.59807 2.922819,-0.59807 0.887456,0 2.025716,0.19292 l 0.09646,-0.47266 q 0.01929,-0.0965 0.01929,-0.19293 0,-0.35691 -0.279742,-0.54984 -0.366558,-0.26045 -1.360123,-0.26045 -0.90675,0 -2.344043,0.34727 -0.540191,0.1254 -0.848872,0.1254 -0.318327,0 -0.530545,-0.21222 -0.212218,-0.21221 -0.212218,-0.55948 0,-0.48231 0.308681,-0.79099 0.30868,-0.31833 1.688097,-0.59807 1.389062,-0.28939 2.382628,-0.28939 1.620573,0 2.421213,0.67524 0.810287,0.66559 0.810287,1.63022 0,0.30868 -0.06752,0.66559 l -0.868164,4.07073 h 0.337619 q 0.665592,0 0.897103,0.20257 0.23151,0.20257 0.23151,0.57877 0,0.59807 -0.56913,0.99357 -0.299034,0.20257 -0.974273,0.20257 z m 0.752409,-3.54018 q -1.128614,-0.23151 -2.141472,-0.23151 -1.311892,0 -2.372981,0.70418 -0.607715,0.39549 -0.607715,0.75241 0,0.28938 0.414789,0.48231 0.424436,0.18328 1.080382,0.18328 0.684885,0 1.649512,-0.2701 0.974273,-0.27974 1.794206,-0.7717 z" />
        <path
           inkscape:connector-curvature="0"
           id="path974"
           style="font-style:italic;font-variant:normal;font-weight:bold;font-stretch:normal;font-size:19.75555611px;font-family:'Courier New';-inkscape-font-specification:'Courier New, Bold Italic';font-variant-ligatures:normal;font-variant-caps:normal;font-variant-numeric:normal;font-feature-settings:normal;text-align:start;writing-mode:lr-tb;text-anchor:start;stroke:#fff8ff;stroke-width:0.43720749;stroke-miterlimit:4;stroke-dasharray:none;stroke-opacity:1"
           d="m 105.04188,105.89856 q -0.41479,-0.29903 -0.9164,-0.44373 -0.49196,-0.15434 -1.08038,-0.15434 -0.94534,0 -1.61093,0.26045 -0.66559,0.25081 -0.66559,0.51126 0,0.17363 0.22186,0.32797 0.29904,0.21222 1.40836,0.36656 1.71703,0.24115 2.50803,0.5016 0.80064,0.26045 1.2733,0.83923 0.47267,0.57877 0.47267,1.28295 0,1.418 -1.52411,2.34405 -1.52411,0.92604 -3.54018,0.92604 -0.85852,0 -1.56269,-0.15434 -0.704182,-0.1447 -1.244373,-0.43409 -0.356911,0.26045 -0.684885,0.26045 -0.376204,0 -0.607714,-0.21221 -0.221865,-0.22187 -0.221865,-0.5209 0,-0.19293 0.08682,-0.58843 l 0.144694,-0.66559 q 0.144694,-0.72347 0.482313,-1.0225 0.347266,-0.29904 0.790994,-0.29904 0.356912,0 0.549837,0.20258 0.192926,0.19292 0.231511,0.67523 0.366558,0.38585 0.964628,0.58843 0.59806,0.19292 1.42764,0.19292 1.45659,0 2.29581,-0.47267 0.37621,-0.21221 0.37621,-0.48231 0,-0.3762 -0.46302,-0.59807 -0.46302,-0.21222 -1.94855,-0.3762 -2.13182,-0.23151 -2.797412,-0.791 -0.665593,-0.55948 -0.665593,-1.43729 0,-0.76205 0.49196,-1.44694 0.49196,-0.68488 1.475875,-1.15755 1.27331,-0.59807 2.73954,-0.59807 0.68489,0 1.2926,0.13505 0.60772,0.1254 1.12861,0.39549 0.41479,-0.27009 0.68489,-0.27009 0.30868,0 0.53054,0.22186 0.22187,0.21222 0.22187,0.50161 0,0.20257 -0.0772,0.59807 l -0.10611,0.48231 q -0.15434,0.71382 -0.50161,1.02251 -0.33762,0.29903 -0.78134,0.29903 -0.35692,0 -0.57878,-0.22186 -0.22186,-0.22187 -0.22186,-0.58843 z" />
        <path
           inkscape:connector-curvature="0"
           id="path976"
           style="font-style:italic;font-variant:normal;font-weight:bold;font-stretch:normal;font-size:19.75555611px;font-family:'Courier New';-inkscape-font-specification:'Courier New, Bold Italic';font-variant-ligatures:normal;font-variant-caps:normal;font-variant-numeric:normal;font-feature-settings:normal;text-align:start;writing-mode:lr-tb;text-anchor:start;stroke:#fff8ff;stroke-width:0.43720749;stroke-miterlimit:4;stroke-dasharray:none;stroke-opacity:1"
           d="m 118.25726,103.94037 q 0.43408,-0.33762 0.80064,-0.33762 0.33762,0 0.55949,0.22187 0.23151,0.21221 0.23151,0.51125 0,0.18328 -0.0868,0.57877 l -0.2701,1.27331 q -0.15434,0.71382 -0.49195,1.01286 -0.33762,0.29903 -0.78135,0.29903 -0.41479,0 -0.63666,-0.23151 -0.17363,-0.17363 -0.17363,-0.70417 0,-0.53055 -0.35691,-0.791 -0.68489,-0.47267 -1.91961,-0.47267 -1.90031,0 -3.00963,1.41801 -0.76206,0.97427 -0.76206,2.0643 0,0.86816 0.66559,1.38906 0.67524,0.5209 2.37299,0.5209 1.21543,0 2.05465,-0.2508 0.50161,-0.15435 0.99357,-0.5209 0.5016,-0.37621 0.83922,-0.37621 0.34727,0 0.56913,0.23151 0.23151,0.23151 0.23151,0.57878 0,0.69453 -0.95498,1.30224 -1.58199,1.01286 -4.34082,1.01286 -2.28616,0 -3.37619,-0.96462 -1.08039,-0.96463 -1.08039,-2.46945 0,-1.418 0.81994,-2.85529 0.82958,-1.44694 2.28616,-2.24758 1.45659,-0.81029 3.12539,-0.81029 0.81029,0 1.48553,0.15434 0.67524,0.15434 1.20578,0.46302 z" />
        <path
           inkscape:connector-curvature="0"
           id="path978"
           style="font-style:italic;font-variant:normal;font-weight:bold;font-stretch:normal;font-size:19.75555611px;font-family:'Courier New';-inkscape-font-specification:'Courier New, Bold Italic';font-variant-ligatures:normal;font-variant-caps:normal;font-variant-numeric:normal;font-feature-settings:normal;text-align:start;writing-mode:lr-tb;text-anchor:start;stroke:#fff8ff;stroke-width:0.43720749;stroke-miterlimit:4;stroke-dasharray:none;stroke-opacity:1"
           d="m 125.85852,99.831061 -0.8971,4.215419 q 1.38906,-0.72347 2.70095,-0.72347 1.48553,0 2.25723,0.69453 0.78135,0.69453 0.78135,1.83279 0,0.37621 -0.0965,0.80064 l -0.78134,3.71382 q 0.78134,0 0.98392,0.16398 0.27974,0.23151 0.27974,0.61736 0,0.59807 -0.57878,0.99357 -0.28939,0.20257 -0.97427,0.20257 h -2.24758 q -0.66559,0 -0.89711,-0.20257 -0.23151,-0.21222 -0.23151,-0.57878 0,-0.61736 0.58843,-1.01286 0.29903,-0.19292 1.09002,-0.18327 l 0.76206,-3.57877 q 0.0675,-0.29903 0.0675,-0.54019 0,-0.40514 -0.33762,-0.67524 -0.33761,-0.2701 -1.09967,-0.2701 -0.65595,0 -1.22508,0.26045 -0.55948,0.25081 -1.59163,1.09968 l -0.79099,3.70417 q 0.78134,0 0.98392,0.16398 0.27974,0.23151 0.27974,0.61736 0,0.59807 -0.56913,0.99357 -0.29904,0.20257 -0.98392,0.20257 h -2.24758 q -0.65595,0 -0.89711,-0.20257 -0.23151,-0.21222 -0.23151,-0.57878 0,-0.61736 0.59807,-1.01286 0.28939,-0.19292 1.09003,-0.18327 l 1.8135,-8.55624 h -0.33762 q -0.65595,0 -0.8971,-0.20258 -0.23151,-0.21221 -0.23151,-0.57877 0,-0.58842 0.55948,-0.98392 0.30868,-0.212219 0.99357,-0.212219 z" />
        <path
           inkscape:connector-curvature="0"
           id="path980"
           style="font-style:italic;font-variant:normal;font-weight:bold;font-stretch:normal;font-size:19.75555611px;font-family:'Courier New';-inkscape-font-specification:'Courier New, Bold Italic';font-variant-ligatures:normal;font-variant-caps:normal;font-variant-numeric:normal;font-feature-settings:normal;text-align:start;writing-mode:lr-tb;text-anchor:start;stroke:#fff8ff;stroke-width:0.43720749;stroke-miterlimit:4;stroke-dasharray:none;stroke-opacity:1"
           d="m 140.45332,99.831061 -0.44373,2.093239 h -2.35369 l 0.44373,-2.093239 z m -0.5209,3.752399 -1.44694,6.78133 h 2.38263 q 0.65595,0 0.88746,0.20257 0.24115,0.20257 0.24115,0.57877 0,0.59807 -0.57877,0.99357 -0.28939,0.20257 -0.97427,0.20257 h -6.7331 q -0.65595,0 -0.8971,-0.20257 -0.23151,-0.21222 -0.23151,-0.57878 0,-0.59807 0.55948,-0.98392 0.30868,-0.21221 0.99357,-0.21221 h 2.37298 l 1.0225,-4.80385 h -1.59163 q -0.65595,0 -0.8971,-0.20257 -0.23151,-0.21222 -0.23151,-0.57877 0,-0.57878 0.54983,-0.97428 0.29904,-0.22186 1.00321,-0.22186 z" />
        <path
           inkscape:connector-curvature="0"
           id="path982"
           style="font-style:italic;font-variant:normal;font-weight:bold;font-stretch:normal;font-size:19.75555611px;font-family:'Courier New';-inkscape-font-specification:'Courier New, Bold Italic';font-variant-ligatures:normal;font-variant-caps:normal;font-variant-numeric:normal;font-feature-settings:normal;text-align:start;writing-mode:lr-tb;text-anchor:start;stroke:#fff8ff;stroke-width:0.43720749;stroke-miterlimit:4;stroke-dasharray:none;stroke-opacity:1"
           d="m 148.77805,103.58346 -0.0868,0.66559 q 0.66559,-0.5016 1.26366,-0.71382 0.59807,-0.21222 1.37941,-0.21222 1.51447,0 2.29582,0.69453 0.78134,0.68489 0.78134,1.79421 0,0.40514 -0.0965,0.87781 l -0.78135,3.67523 q 0.56913,0 0.80064,0.21221 0.23151,0.20257 0.23151,0.56913 0,0.59807 -0.56913,0.99357 -0.29903,0.20257 -0.98392,0.20257 h -1.78455 q -0.65595,0 -0.89711,-0.20257 -0.23151,-0.21222 -0.23151,-0.57878 0,-0.48231 0.38585,-0.83922 0.3955,-0.36656 1.07074,-0.35691 l 0.79099,-3.73311 q 0.0482,-0.23151 0.0482,-0.43408 0,-0.37621 -0.28938,-0.59807 -0.3955,-0.29904 -1.17685,-0.29904 -0.67524,0 -1.25401,0.26045 -0.56913,0.26045 -1.55305,1.12862 l -0.78135,3.67523 q 0.78135,0 0.98392,0.16398 0.27974,0.23151 0.27974,0.61736 0,0.59807 -0.56913,0.99357 -0.29903,0.20257 -0.98392,0.20257 h -2.24758 q -0.65595,0 -0.8971,-0.20257 -0.23151,-0.21222 -0.23151,-0.57878 0,-0.61736 0.59807,-1.01286 0.28938,-0.18327 1.09002,-0.18327 l 1.02251,-4.80385 q -0.56913,0 -0.81029,-0.21221 -0.23151,-0.21222 -0.23151,-0.56913 0,-0.57878 0.54984,-0.97428 0.30868,-0.22186 1.00321,-0.22186 z" />
        <path
           inkscape:connector-curvature="0"
           id="path984"
           style="font-style:italic;font-variant:normal;font-weight:bold;font-stretch:normal;font-size:19.75555611px;font-family:'Courier New';-inkscape-font-specification:'Courier New, Bold Italic';font-variant-ligatures:normal;font-variant-caps:normal;font-variant-numeric:normal;font-feature-settings:normal;text-align:start;writing-mode:lr-tb;text-anchor:start;stroke:#fff8ff;stroke-width:0.43720749;stroke-miterlimit:4;stroke-dasharray:none;stroke-opacity:1"
           d="m 166.45966,108.96608 h -8.11251 q 0.13504,0.76205 0.81028,1.24436 0.67524,0.47267 2.02572,0.47267 1.11897,0 3.03857,-0.47267 0.80064,-0.19292 1.09968,-0.19292 0.31832,0 0.53054,0.21222 0.21222,0.20257 0.21222,0.54019 0,0.49196 -0.44373,0.87781 -0.43408,0.3762 -2.0643,0.69453 -1.63022,0.31833 -2.94211,0.31833 -2.0643,0 -3.19292,-1.03215 -1.11896,-1.0418 -1.11896,-2.65273 0,-1.34083 0.81028,-2.69131 0.81994,-1.35047 2.32475,-2.15111 1.51447,-0.81029 3.1061,-0.81029 1.87138,0 3.02893,1.03215 1.1672,1.03215 1.1672,2.88423 0,0.3955 -0.0965,0.88746 z m -1.77492,-1.97749 q -0.26045,-0.81029 -0.90675,-1.24437 -0.6463,-0.44373 -1.65915,-0.44373 -1.01286,0 -1.83279,0.42444 -0.81994,0.41479 -1.45659,1.26366 z" />
        <path
           inkscape:connector-curvature="0"
           id="path986"
           style="font-style:italic;font-variant:normal;font-weight:bold;font-stretch:normal;font-size:19.75555611px;font-family:'Courier New';-inkscape-font-specification:'Courier New, Bold Italic';font-variant-ligatures:normal;font-variant-caps:normal;font-variant-numeric:normal;font-feature-settings:normal;text-align:start;writing-mode:lr-tb;text-anchor:start;stroke:#fff8ff;stroke-width:0.43720749;stroke-miterlimit:4;stroke-dasharray:none;stroke-opacity:1"
           d="m 172.46928,103.58346 -0.0868,0.66559 q 0.66559,-0.5016 1.26366,-0.71382 0.59807,-0.21222 1.37941,-0.21222 1.51447,0 2.29582,0.69453 0.78134,0.68489 0.78134,1.79421 0,0.40514 -0.0965,0.87781 l -0.78135,3.67523 q 0.56913,0 0.80064,0.21221 0.23151,0.20257 0.23151,0.56913 0,0.59807 -0.56913,0.99357 -0.29903,0.20257 -0.98391,0.20257 h -1.78456 q -0.65595,0 -0.89711,-0.20257 -0.23151,-0.21222 -0.23151,-0.57878 0,-0.48231 0.38585,-0.83922 0.3955,-0.36656 1.07074,-0.35691 l 0.79099,-3.73311 q 0.0482,-0.23151 0.0482,-0.43408 0,-0.37621 -0.28938,-0.59807 -0.3955,-0.29904 -1.17685,-0.29904 -0.67524,0 -1.25401,0.26045 -0.56913,0.26045 -1.55305,1.12862 l -0.78135,3.67523 q 0.78135,0 0.98392,0.16398 0.27974,0.23151 0.27974,0.61736 0,0.59807 -0.56913,0.99357 -0.29903,0.20257 -0.98392,0.20257 h -2.24758 q -0.65594,0 -0.8971,-0.20257 -0.23151,-0.21222 -0.23151,-0.57878 0,-0.61736 0.59807,-1.01286 0.28939,-0.18327 1.09003,-0.18327 l 1.0225,-4.80385 q -0.56913,0 -0.81029,-0.21221 -0.23151,-0.21222 -0.23151,-0.56913 0,-0.57878 0.54984,-0.97428 0.30868,-0.22186 1.00321,-0.22186 z" />
      </g>
      <g
         transform="matrix(0.69074755,0,0,0.69074755,50.325009,-109.23423)"
         id="text1289-4"
         style="font-style:normal;font-variant:normal;font-weight:normal;font-stretch:normal;font-size:15.1468668px;line-height:1.25;font-family:'Rounds Black';-inkscape-font-specification:'Rounds Black, Normal';font-variant-ligatures:normal;font-variant-caps:normal;font-variant-numeric:normal;font-feature-settings:normal;text-align:center;letter-spacing:0px;word-spacing:0px;writing-mode:lr-tb;text-anchor:middle;fill:#000000;fill-opacity:1;stroke:#fff8ff;stroke-width:0.43692735px;stroke-linecap:butt;stroke-linejoin:miter;stroke-opacity:1"
         aria-label="Ein">
        <path
           inkscape:connector-curvature="0"
           id="path922"
           style="font-style:normal;font-variant:normal;font-weight:normal;font-stretch:normal;font-size:19.75555611px;font-family:'Rounds Black';-inkscape-font-specification:'Rounds Black, Normal';font-variant-ligatures:normal;font-variant-caps:normal;font-variant-numeric:normal;font-feature-settings:normal;text-align:center;writing-mode:lr-tb;text-anchor:middle;stroke:#fff8ff;stroke-width:0.43692735px;stroke-opacity:1"
           d="m 118.03463,30.221034 c 1.38288,0 2.17311,-0.790222 2.17311,-1.975556 0,-1.185333 -0.79023,-1.975555 -2.17311,-1.975555 h -7.50712 c -1.38288,0 -2.17311,0.790222 -2.17311,1.975555 v 9.877778 c 0,1.185334 0.79023,1.975556 2.17311,1.975556 h 7.70467 c 1.38289,0 2.17311,-0.790222 2.17311,-1.975556 0,-1.185333 -0.79022,-1.975555 -2.17311,-1.975555 h -5.53155 v -1.185333 h 3.75355 c 1.18533,0 1.97556,-0.790223 1.97556,-1.778001 0,-0.987777 -0.79023,-1.778 -1.97556,-1.778 h -3.75355 v -1.185333 z" />
        <path
           inkscape:connector-curvature="0"
           id="path924"
           style="font-style:normal;font-variant:normal;font-weight:normal;font-stretch:normal;font-size:19.75555611px;font-family:'Rounds Black';-inkscape-font-specification:'Rounds Black, Normal';font-variant-ligatures:normal;font-variant-caps:normal;font-variant-numeric:normal;font-feature-settings:normal;text-align:center;writing-mode:lr-tb;text-anchor:middle;stroke:#fff8ff;stroke-width:0.43692735px;stroke-opacity:1"
           d="m 126.24399,28.047923 c 0,-1.185333 -0.79023,-1.975556 -2.17312,-1.975556 -1.38288,0 -2.17311,0.790223 -2.17311,1.975556 v 10.272889 c 0,1.185333 0.79023,1.975556 2.17311,1.975556 1.38289,0 2.17312,-0.790223 2.17312,-1.975556 z" />
        <path
           inkscape:connector-curvature="0"
           id="path926"
           style="font-style:normal;font-variant:normal;font-weight:normal;font-stretch:normal;font-size:19.75555611px;font-family:'Rounds Black';-inkscape-font-specification:'Rounds Black, Normal';font-variant-ligatures:normal;font-variant-caps:normal;font-variant-numeric:normal;font-feature-settings:normal;text-align:center;writing-mode:lr-tb;text-anchor:middle;stroke:#fff8ff;stroke-width:0.43692735px;stroke-opacity:1"
           d="m 133.34827,33.777034 3.35844,4.543778 c 0.889,1.284111 1.58045,1.975556 2.76578,1.975556 1.38289,0 2.17311,-0.809978 2.17311,-1.975556 V 28.047923 c 0,-1.185333 -0.79022,-1.975556 -2.17311,-1.975556 -1.38289,0 -2.17311,0.790223 -2.17311,1.975556 v 4.543778 h -0.19755 l -3.35845,-4.543778 c -0.889,-1.284111 -1.58044,-1.975556 -2.76578,-1.975556 -1.38289,0 -2.17311,0.809978 -2.17311,1.975556 v 10.272889 c 0,1.185333 0.79022,1.975556 2.17311,1.975556 1.38289,0 2.17311,-0.790223 2.17311,-1.975556 v -4.543778 z" />
      </g>
      <g
         style="stroke:#fff8ff;stroke-width:0.43700001;stroke-miterlimit:4;stroke-dasharray:none;stroke-opacity:1"
         transform="matrix(0.69074755,0,0,0.69074755,50.152322,-109.23423)"
         id="g968">
        <path
           inkscape:connector-curvature="0"
           id="path919"
           style="font-style:normal;font-variant:normal;font-weight:normal;font-stretch:normal;font-size:19.75555611px;line-height:1.25;font-family:'Rounds Black';-inkscape-font-specification:'Rounds Black, Normal';font-variant-ligatures:normal;font-variant-caps:normal;font-variant-numeric:normal;font-feature-settings:normal;text-align:start;letter-spacing:0px;word-spacing:0px;writing-mode:lr-tb;text-anchor:start;fill:#000000;fill-opacity:1;stroke:#fff8ff;stroke-width:0.43700001;stroke-linecap:butt;stroke-linejoin:miter;stroke-miterlimit:4;stroke-dasharray:none;stroke-opacity:1"
           d="m 152.57609,42.999997 c -0.88289,0 -1.45046,0.567571 -1.45046,1.324333 0,0.756762 0.56757,1.324334 1.45046,1.324334 0.88289,0 1.45046,-0.567572 1.45046,-1.324334 0,-0.756762 -0.56757,-1.324333 -1.45046,-1.324333 z" />
        <path
           inkscape:connector-curvature="0"
           id="path916"
           style="font-style:normal;font-variant:normal;font-weight:normal;font-stretch:normal;font-size:19.75555611px;line-height:1.25;font-family:'Rounds Black';-inkscape-font-specification:'Rounds Black, Normal';font-variant-ligatures:normal;font-variant-caps:normal;font-variant-numeric:normal;font-feature-settings:normal;text-align:start;letter-spacing:0px;word-spacing:0px;writing-mode:lr-tb;text-anchor:start;fill:#000000;fill-opacity:1;stroke:#fff8ff;stroke-width:0.43700001;stroke-linecap:butt;stroke-linejoin:miter;stroke-miterlimit:4;stroke-dasharray:none;stroke-opacity:1"
           d="m 156.8001,42.999997 c -0.88289,0 -1.45046,0.567571 -1.45046,1.324333 0,0.756762 0.56757,1.324334 1.45046,1.324334 0.88289,0 1.45046,-0.567572 1.45046,-1.324334 0,-0.756762 -0.56757,-1.324333 -1.45046,-1.324333 z" />
      </g>
    </g>
  </g>
</svg>
