<?xml version="1.0" encoding="UTF-8" standalone="no"?>
<!-- Created with Inkscape (http://www.inkscape.org/) -->

<svg
   xmlns:dc="http://purl.org/dc/elements/1.1/"
   xmlns:cc="http://creativecommons.org/ns#"
   xmlns:rdf="http://www.w3.org/1999/02/22-rdf-syntax-ns#"
   xmlns:svg="http://www.w3.org/2000/svg"
   xmlns="http://www.w3.org/2000/svg"
   xmlns:sodipodi="http://sodipodi.sourceforge.net/DTD/sodipodi-0.dtd"
   xmlns:inkscape="http://www.inkscape.org/namespaces/inkscape"
   width="125.89404mm"
   height="159.0289mm"
   viewBox="0 0 125.89404 159.0289"
   version="1.1"
   id="svg8"
   inkscape:version="0.92.4 (5da689c313, 2019-01-14)"
   sodipodi:docname="draft004_bw.svg">
  <defs
     id="defs2" />
  <sodipodi:namedview
     id="base"
     pagecolor="#ffffff"
     bordercolor="#666666"
     borderopacity="1.0"
     inkscape:pageopacity="0.0"
     inkscape:pageshadow="2"
     inkscape:zoom="1.4"
     inkscape:cx="63.882268"
     inkscape:cy="284.34871"
     inkscape:document-units="mm"
     inkscape:current-layer="layer1"
     showgrid="true"
     fit-margin-top="0"
     fit-margin-left="0"
     fit-margin-right="0"
     fit-margin-bottom="0"
     inkscape:window-width="2560"
     inkscape:window-height="1413"
     inkscape:window-x="1920"
     inkscape:window-y="27"
     inkscape:window-maximized="1"
     inkscape:pagecheckerboard="true">
    <inkscape:grid
       type="xygrid"
       id="grid1307"
       originx="-62.052977"
       originy="-111.89872" />
  </sodipodi:namedview>
  <metadata
     id="metadata5">
    <rdf:RDF>
      <cc:Work
         rdf:about="">
        <dc:format>image/svg+xml</dc:format>
        <dc:type
           rdf:resource="http://purl.org/dc/dcmitype/StillImage" />
        <dc:title></dc:title>
      </cc:Work>
    </rdf:RDF>
  </metadata>
  <g
     inkscape:label="Ebene 1"
     inkscape:groupmode="layer"
     id="layer1"
     transform="translate(-62.052981,-26.072367)">
    <g
       transform="matrix(0.26458333,0,0,0.26458333,26.580294,6.4793552)"
       id="layer1-3"
       style="fill:#000000;fill-opacity:1">
      <path
         d="m 263.42,235.15 c -66.24,0 -120,53.76 -120,120 0,134.75 135.93,170.08 228.56,303.3 87.57,-132.4 228.56,-172.85 228.56,-303.3 0,-66.24 -53.76,-120 -120,-120 -48.05,0 -89.4,28.37 -108.56,69.18 -19.16,-40.81 -60.52,-69.18 -108.56,-69.18 z"
         id="path7"
         inkscape:connector-curvature="0"
         style="fill:#000000;stroke:#000000;stroke-width:18.70000076;fill-opacity:1" />
    </g>
    <g
       aria-label="Herz fur "
       style="font-style:normal;font-variant:normal;font-weight:normal;font-stretch:normal;font-size:15.1468668px;line-height:1.25;font-family:'Rounds Black';-inkscape-font-specification:'Rounds Black, Normal';font-variant-ligatures:normal;font-variant-caps:normal;font-variant-numeric:normal;font-feature-settings:normal;text-align:center;letter-spacing:0px;word-spacing:0px;writing-mode:lr-tb;text-anchor:middle;display:inline;fill:#000000;fill-opacity:1;stroke:#f3ffff;stroke-width:0.43700001;stroke-linecap:butt;stroke-linejoin:miter;stroke-miterlimit:4;stroke-dasharray:none;stroke-opacity:1"
       id="text1289">
      <path
         d="m 78.186278,48.400603 c 0,-1.185333 -0.790222,-1.975556 -2.173111,-1.975556 -1.382889,0 -2.173111,0.790223 -2.173111,1.975556 v 10.272889 c 0,1.185334 0.790222,1.975556 2.173111,1.975556 1.382889,0 2.173111,-0.790222 2.173111,-1.975556 v -3.160889 h 3.951111 v 3.160889 c 0,1.185334 0.790223,1.975556 2.173112,1.975556 1.382889,0 2.173111,-0.790222 2.173111,-1.975556 V 48.400603 c 0,-1.185333 -0.790222,-1.975556 -2.173111,-1.975556 -1.382889,0 -2.173112,0.790223 -2.173112,1.975556 v 3.358445 h -3.951111 z"
         style="font-style:normal;font-variant:normal;font-weight:normal;font-stretch:normal;font-size:19.75555611px;font-family:'Rounds Black';-inkscape-font-specification:'Rounds Black, Normal';font-variant-ligatures:normal;font-variant-caps:normal;font-variant-numeric:normal;font-feature-settings:normal;text-align:center;writing-mode:lr-tb;text-anchor:middle;stroke:#f3ffff;stroke-width:0.43700001;stroke-miterlimit:4;stroke-dasharray:none;stroke-opacity:1"
         id="path929"
         inkscape:connector-curvature="0" />
      <path
         d="m 98.722796,50.573714 c 1.382884,0 2.173114,-0.790222 2.173114,-1.975555 0,-1.185334 -0.79023,-1.975556 -2.173114,-1.975556 h -7.507111 c -1.382889,0 -2.173112,0.790222 -2.173112,1.975556 v 9.877778 c 0,1.185333 0.790223,1.975555 2.173112,1.975555 h 7.704666 c 1.382889,0 2.173109,-0.790222 2.173109,-1.975555 0,-1.185334 -0.79022,-1.975556 -2.173109,-1.975556 h -5.531555 v -1.185333 h 3.753555 c 1.185334,0 1.975556,-0.790223 1.975556,-1.778 0,-0.987778 -0.790222,-1.778 -1.975556,-1.778 h -3.753555 v -1.185334 z"
         style="font-style:normal;font-variant:normal;font-weight:normal;font-stretch:normal;font-size:19.75555611px;font-family:'Rounds Black';-inkscape-font-specification:'Rounds Black, Normal';font-variant-ligatures:normal;font-variant-caps:normal;font-variant-numeric:normal;font-feature-settings:normal;text-align:center;writing-mode:lr-tb;text-anchor:middle;stroke:#f3ffff;stroke-width:0.43700001;stroke-miterlimit:4;stroke-dasharray:none;stroke-opacity:1"
         id="path931"
         inkscape:connector-curvature="0" />
      <path
         d="m 108.11749,55.512603 3.16089,4.148667 c 0,0 0.79022,0.987778 1.778,0.987778 1.58044,0 2.37066,-0.790222 2.37066,-1.975556 0,-0.790222 -0.79022,-1.778 -0.79022,-1.778 l -1.97555,-2.370667 V 54.32727 c 0,0 2.17311,-0.790222 2.17311,-3.259667 0,-2.667 -1.778,-4.445 -5.92667,-4.445 h -4.14867 c -1.38289,0 -2.17311,0.790222 -2.17311,1.975556 v 10.075333 c 0,1.185334 0.79022,1.975556 2.17311,1.975556 1.38289,0 2.17311,-0.790222 2.17311,-1.975556 v -3.160889 z m -1.18534,-3.358444 v -2.173111 h 1.97556 c 0.889,0 1.38289,0.493888 1.38289,1.086555 0,0.592667 -0.49389,1.086556 -1.38289,1.086556 z"
         style="font-style:normal;font-variant:normal;font-weight:normal;font-stretch:normal;font-size:19.75555611px;font-family:'Rounds Black';-inkscape-font-specification:'Rounds Black, Normal';font-variant-ligatures:normal;font-variant-caps:normal;font-variant-numeric:normal;font-feature-settings:normal;text-align:center;writing-mode:lr-tb;text-anchor:middle;stroke:#f3ffff;stroke-width:0.43700001;stroke-miterlimit:4;stroke-dasharray:none;stroke-opacity:1"
         id="path933"
         inkscape:connector-curvature="0" />
      <path
         d="m 116.52286,56.500381 c 0,0 -0.79022,0.790222 -0.79022,1.975556 0,1.185333 0.79022,1.975555 2.17311,1.975555 h 8.09978 c 1.38289,0 2.17311,-0.790222 2.17311,-1.975555 0,-1.185334 -0.79022,-1.975556 -2.17311,-1.975556 h -3.75356 v -0.197555 l 4.93889,-5.729112 c 0,0 0.79022,-0.790222 0.79022,-1.975555 0,-1.185334 -0.79022,-1.975556 -2.17311,-1.975556 h -7.70467 c -1.38288,0 -2.17311,0.790222 -2.17311,1.975556 0,1.185333 0.79023,1.975555 2.17311,1.975555 h 3.75356 v 0.197556 z"
         style="font-style:normal;font-variant:normal;font-weight:normal;font-stretch:normal;font-size:19.75555611px;font-family:'Rounds Black';-inkscape-font-specification:'Rounds Black, Normal';font-variant-ligatures:normal;font-variant-caps:normal;font-variant-numeric:normal;font-feature-settings:normal;text-align:center;writing-mode:lr-tb;text-anchor:middle;stroke:#f3ffff;stroke-width:0.43700001;stroke-miterlimit:4;stroke-dasharray:none;stroke-opacity:1"
         id="path935"
         inkscape:connector-curvature="0" />
      <path
         d="m 144.67762,50.573714 c 1.38288,0 2.17311,-0.790222 2.17311,-1.975555 0,-1.185334 -0.79023,-1.975556 -2.17311,-1.975556 h -7.50712 c -1.38288,0 -2.17311,0.790222 -2.17311,1.975556 v 10.075333 c 0,1.185334 0.79023,1.975556 2.17311,1.975556 1.38289,0 2.17312,-0.790222 2.17312,-1.975556 V 56.10527 h 2.96333 c 1.38289,0 2.17311,-0.790222 2.17311,-1.975556 0,-1.185333 -0.79022,-1.975555 -2.17311,-1.975555 h -2.96333 v -1.580445 z"
         style="font-style:normal;font-variant:normal;font-weight:normal;font-stretch:normal;font-size:19.75555611px;font-family:'Rounds Black';-inkscape-font-specification:'Rounds Black, Normal';font-variant-ligatures:normal;font-variant-caps:normal;font-variant-numeric:normal;font-feature-settings:normal;text-align:center;writing-mode:lr-tb;text-anchor:middle;stroke:#f3ffff;stroke-width:0.43700001;stroke-miterlimit:4;stroke-dasharray:none;stroke-opacity:1"
         id="path937"
         inkscape:connector-curvature="0" />
      <path
         d="m 154.43809,60.846603 c 3.95112,0 6.32178,-2.370666 6.32178,-5.729111 v -6.716889 c 0,-1.185333 -0.79022,-1.975556 -2.17311,-1.975556 -1.38289,0 -2.17311,0.790223 -2.17311,1.975556 v 6.716889 c 0,1.382889 -0.79022,2.173111 -1.97556,2.173111 -1.18533,0 -1.97555,-0.790222 -1.97555,-2.173111 v -6.716889 c 0,-1.185333 -0.79022,-1.975556 -2.17311,-1.975556 -1.38289,0 -2.17311,0.790223 -2.17311,1.975556 v 6.716889 c 0,3.358445 2.37066,5.729111 6.32177,5.729111 z"
         style="font-style:normal;font-variant:normal;font-weight:normal;font-stretch:normal;font-size:19.75555611px;font-family:'Rounds Black';-inkscape-font-specification:'Rounds Black, Normal';font-variant-ligatures:normal;font-variant-caps:normal;font-variant-numeric:normal;font-feature-settings:normal;text-align:center;writing-mode:lr-tb;text-anchor:middle;stroke:#f3ffff;stroke-width:0.43700001;stroke-miterlimit:4;stroke-dasharray:none;stroke-opacity:1"
         id="path939"
         inkscape:connector-curvature="0" />
      <path
         d="m 168.85039,55.512603 3.16089,4.148667 c 0,0 0.79022,0.987778 1.778,0.987778 1.58044,0 2.37066,-0.790222 2.37066,-1.975556 0,-0.790222 -0.79022,-1.778 -0.79022,-1.778 l -1.97556,-2.370667 V 54.32727 c 0,0 2.17312,-0.790222 2.17312,-3.259667 0,-2.667 -1.778,-4.445 -5.92667,-4.445 h -4.14867 c -1.38289,0 -2.17311,0.790222 -2.17311,1.975556 v 10.075333 c 0,1.185334 0.79022,1.975556 2.17311,1.975556 1.38289,0 2.17311,-0.790222 2.17311,-1.975556 v -3.160889 z m -1.18534,-3.358444 v -2.173111 h 1.97556 c 0.889,0 1.38289,0.493888 1.38289,1.086555 0,0.592667 -0.49389,1.086556 -1.38289,1.086556 z"
         style="font-style:normal;font-variant:normal;font-weight:normal;font-stretch:normal;font-size:19.75555611px;font-family:'Rounds Black';-inkscape-font-specification:'Rounds Black, Normal';font-variant-ligatures:normal;font-variant-caps:normal;font-variant-numeric:normal;font-feature-settings:normal;text-align:center;writing-mode:lr-tb;text-anchor:middle;stroke:#f3ffff;stroke-width:0.43700001;stroke-miterlimit:4;stroke-dasharray:none;stroke-opacity:1"
         id="path941"
         inkscape:connector-curvature="0" />
    </g>
    <text
       xml:space="preserve"
       style="font-style:normal;font-variant:normal;font-weight:bold;font-stretch:normal;font-size:19.75555611px;line-height:1.25;font-family:'Courier New';-inkscape-font-specification:'Courier New, Bold';font-variant-ligatures:normal;font-variant-caps:normal;font-variant-numeric:normal;font-feature-settings:normal;text-align:start;letter-spacing:0px;word-spacing:0px;writing-mode:lr-tb;text-anchor:start;display:inline;fill:#faffff;fill-opacity:1;stroke:none;stroke-width:0.26458332px;stroke-linecap:butt;stroke-linejoin:miter;stroke-opacity:1;"
       x="71.926239"
       y="112.34227"
       id="text1301"><tspan
         sodipodi:role="line"
         id="tspan1299"
         x="71.926239"
         y="112.34227"
         style="font-style:normal;font-variant:normal;font-weight:bold;font-stretch:normal;font-size:19.75555611px;font-family:'Courier New';-inkscape-font-specification:'Courier New, Bold';font-variant-ligatures:normal;font-variant-caps:normal;font-variant-numeric:normal;font-feature-settings:normal;text-align:start;writing-mode:lr-tb;text-anchor:start;stroke-width:0.26458332px;fill:#faffff;fill-opacity:1;">Maschinen</tspan></text>
    <g
       aria-label="Ein"
       style="font-style:normal;font-variant:normal;font-weight:normal;font-stretch:normal;font-size:15.1468668px;line-height:1.25;font-family:'Rounds Black';-inkscape-font-specification:'Rounds Black, Normal';font-variant-ligatures:normal;font-variant-caps:normal;font-variant-numeric:normal;font-feature-settings:normal;text-align:center;letter-spacing:0px;word-spacing:0px;writing-mode:lr-tb;text-anchor:middle;fill:#000000;fill-opacity:1;stroke:#f3ffff;stroke-width:0.43692735px;stroke-linecap:butt;stroke-linejoin:miter;stroke-opacity:1"
       id="text1289-4">
      <path
         d="m 118.03463,30.221034 c 1.38288,0 2.17311,-0.790222 2.17311,-1.975556 0,-1.185333 -0.79023,-1.975555 -2.17311,-1.975555 h -7.50712 c -1.38288,0 -2.17311,0.790222 -2.17311,1.975555 v 9.877778 c 0,1.185334 0.79023,1.975556 2.17311,1.975556 h 7.70467 c 1.38289,0 2.17311,-0.790222 2.17311,-1.975556 0,-1.185333 -0.79022,-1.975555 -2.17311,-1.975555 h -5.53155 v -1.185333 h 3.75355 c 1.18533,0 1.97556,-0.790223 1.97556,-1.778001 0,-0.987777 -0.79023,-1.778 -1.97556,-1.778 h -3.75355 v -1.185333 z"
         style="font-style:normal;font-variant:normal;font-weight:normal;font-stretch:normal;font-size:19.75555611px;font-family:'Rounds Black';-inkscape-font-specification:'Rounds Black, Normal';font-variant-ligatures:normal;font-variant-caps:normal;font-variant-numeric:normal;font-feature-settings:normal;text-align:center;writing-mode:lr-tb;text-anchor:middle;stroke:#f3ffff;stroke-width:0.43692735px;stroke-opacity:1"
         id="path922"
         inkscape:connector-curvature="0" />
      <path
         d="m 126.24399,28.047923 c 0,-1.185333 -0.79023,-1.975556 -2.17312,-1.975556 -1.38288,0 -2.17311,0.790223 -2.17311,1.975556 v 10.272889 c 0,1.185333 0.79023,1.975556 2.17311,1.975556 1.38289,0 2.17312,-0.790223 2.17312,-1.975556 z"
         style="font-style:normal;font-variant:normal;font-weight:normal;font-stretch:normal;font-size:19.75555611px;font-family:'Rounds Black';-inkscape-font-specification:'Rounds Black, Normal';font-variant-ligatures:normal;font-variant-caps:normal;font-variant-numeric:normal;font-feature-settings:normal;text-align:center;writing-mode:lr-tb;text-anchor:middle;stroke:#f3ffff;stroke-width:0.43692735px;stroke-opacity:1"
         id="path924"
         inkscape:connector-curvature="0" />
      <path
         d="m 133.34827,33.777034 3.35844,4.543778 c 0.889,1.284111 1.58045,1.975556 2.76578,1.975556 1.38289,0 2.17311,-0.809978 2.17311,-1.975556 V 28.047923 c 0,-1.185333 -0.79022,-1.975556 -2.17311,-1.975556 -1.38289,0 -2.17311,0.790223 -2.17311,1.975556 v 4.543778 h -0.19755 l -3.35845,-4.543778 c -0.889,-1.284111 -1.58044,-1.975556 -2.76578,-1.975556 -1.38289,0 -2.17311,0.809978 -2.17311,1.975556 v 10.272889 c 0,1.185333 0.79022,1.975556 2.17311,1.975556 1.38289,0 2.17311,-0.790223 2.17311,-1.975556 v -4.543778 z"
         style="font-style:normal;font-variant:normal;font-weight:normal;font-stretch:normal;font-size:19.75555611px;font-family:'Rounds Black';-inkscape-font-specification:'Rounds Black, Normal';font-variant-ligatures:normal;font-variant-caps:normal;font-variant-numeric:normal;font-feature-settings:normal;text-align:center;writing-mode:lr-tb;text-anchor:middle;stroke:#f3ffff;stroke-width:0.43692735px;stroke-opacity:1"
         id="path926"
         inkscape:connector-curvature="0" />
    </g>
    <g
       id="g968"
       transform="translate(-0.25)"
       style="stroke:#f3ffff;stroke-width:0.43700001;stroke-miterlimit:4;stroke-dasharray:none;stroke-opacity:1">
      <path
         d="m 152.57609,42.999997 c -0.88289,0 -1.45046,0.567571 -1.45046,1.324333 0,0.756762 0.56757,1.324334 1.45046,1.324334 0.88289,0 1.45046,-0.567572 1.45046,-1.324334 0,-0.756762 -0.56757,-1.324333 -1.45046,-1.324333 z"
         style="font-style:normal;font-variant:normal;font-weight:normal;font-stretch:normal;font-size:19.75555611px;line-height:1.25;font-family:'Rounds Black';-inkscape-font-specification:'Rounds Black, Normal';font-variant-ligatures:normal;font-variant-caps:normal;font-variant-numeric:normal;font-feature-settings:normal;text-align:start;letter-spacing:0px;word-spacing:0px;writing-mode:lr-tb;text-anchor:start;fill:#000000;fill-opacity:1;stroke:#f3ffff;stroke-width:0.43700001;stroke-linecap:butt;stroke-linejoin:miter;stroke-miterlimit:4;stroke-dasharray:none;stroke-opacity:1"
         id="path919"
         inkscape:connector-curvature="0" />
      <path
         d="m 156.8001,42.999997 c -0.88289,0 -1.45046,0.567571 -1.45046,1.324333 0,0.756762 0.56757,1.324334 1.45046,1.324334 0.88289,0 1.45046,-0.567572 1.45046,-1.324334 0,-0.756762 -0.56757,-1.324333 -1.45046,-1.324333 z"
         style="font-style:normal;font-variant:normal;font-weight:normal;font-stretch:normal;font-size:19.75555611px;line-height:1.25;font-family:'Rounds Black';-inkscape-font-specification:'Rounds Black, Normal';font-variant-ligatures:normal;font-variant-caps:normal;font-variant-numeric:normal;font-feature-settings:normal;text-align:start;letter-spacing:0px;word-spacing:0px;writing-mode:lr-tb;text-anchor:start;fill:#000000;fill-opacity:1;stroke:#f3ffff;stroke-width:0.43700001;stroke-linecap:butt;stroke-linejoin:miter;stroke-miterlimit:4;stroke-dasharray:none;stroke-opacity:1"
         id="path916"
         inkscape:connector-curvature="0" />
    </g>
  </g>
</svg>
